<svg width="1440" height="704" viewBox="0 0 1440 704" fill="none" xmlns="http://www.w3.org/2000/svg">
<g id="mainbanner2" opacity="0.5">
<rect id="bg kotak copy" y="2" width="1432.04" height="702" rx="8" fill="#F7951E" fill-opacity="0.5"/>
<g id="bg content copy" filter="url(#filter0_d_485_157)">
<rect y="2" width="1440" height="702" rx="8" fill="white"/>
</g>
<mask id="mask0_485_157" style="mask-type:alpha" maskUnits="userSpaceOnUse" x="0" y="2" width="1440" height="702">
<rect id="bg content copy_2" y="2" width="1440" height="702" rx="8" fill="white"/>
</mask>
<g mask="url(#mask0_485_157)">
<g id="Fill 1 + Fill 1 Mask">
<rect id="Mask" x="-39.7791" y="-39.4224" width="1511.6" height="741.242" rx="8" fill="#BDDBE0" fill-opacity="0.5"/>
<mask id="mask1_485_157" style="mask-type:alpha" maskUnits="userSpaceOnUse" x="-40" y="-40" width="1512" height="742">
<rect id="Mask_2" x="-39.7791" y="-39.4224" width="1511.6" height="741.242" rx="8" fill="white"/>
</mask>
<g mask="url(#mask1_485_157)">
<path id="Fill 1" fill-rule="evenodd" clip-rule="evenodd" d="M736.864 1093.25C700.639 1053.85 696.943 993.265 689.685 941.138C680.54 875.465 676.079 809.896 684.697 743.959C695.216 663.455 716.922 584.111 735.313 505.464C754.364 423.964 768.945 336.866 797.326 258.635C820.199 195.566 868.113 150.379 917.015 110.781C956.243 79.0277 1001.72 58.5212 1048.82 69.3468C1050.9 67.8819 1053.28 66.6948 1056.11 66.0356C1134.48 47.7677 1295.92 19.6728 1343.02 117.572C1367.86 169.199 1350.15 233.332 1381.56 282.532C1417.07 338.147 1480.05 306.371 1527.4 335.726C1565.45 359.293 1571.26 405.315 1561.64 448.072C1555.79 474.002 1543.19 497.655 1538.43 523.829C1530.45 567.658 1556.28 588.217 1581.64 616.659C1658.89 703.344 1667.5 823.66 1629.47 932.511C1608.49 992.547 1578.71 1050.01 1549.13 1105.44C1522.4 1155.51 1489.76 1211.05 1443.13 1241.76C1394.74 1273.62 1337.88 1261.28 1284.61 1254.47C1218.33 1246.01 1152.23 1235.63 1086.43 1223.37C1023.73 1211.68 960.866 1199.17 899.747 1179.56C844.932 1161.98 778.54 1138.6 736.864 1093.25Z" fill="#049CA5" fill-opacity="0.5"/>
<path id="Fill 1_2" fill-rule="evenodd" clip-rule="evenodd" d="M450.947 982.291C410.343 940.086 405.033 876.494 395.985 821.675C384.585 752.611 378.332 683.772 386.437 614.871C396.331 530.749 418.536 448.12 437.115 366.139C456.359 281.184 470.578 190.251 500.138 108.954C523.961 43.4127 575.658 -2.76431 628.556 -43.0578C670.99 -75.3687 720.517 -95.736 772.475 -83.2211C774.732 -84.705 777.322 -85.8903 780.415 -86.5111C866.129 -103.716 1042.88 -129.163 1096.63 -25.378C1124.99 29.3524 1106.85 96.1359 1142.37 148.486C1182.53 207.661 1251.04 175.915 1303.66 207.859C1345.95 233.505 1353.28 281.888 1343.58 326.467C1337.7 353.501 1324.35 377.981 1319.65 405.299C1311.8 451.042 1340.59 473.232 1369.03 503.673C1455.67 596.45 1467.62 722.778 1428.09 835.931C1406.29 898.34 1374.76 957.838 1343.41 1015.2C1315.08 1067.02 1280.38 1124.43 1229.79 1155.46C1177.3 1187.66 1114.58 1173.32 1055.93 1164.86C982.95 1154.34 910.131 1141.83 837.599 1127.34C768.496 1113.54 699.181 1098.86 631.642 1076.8C571.069 1057.01 497.66 1030.85 450.947 982.291Z" fill="white" fill-opacity="0.5"/>
</g>
</g>
</g>
</g>
<defs>
<filter id="filter0_d_485_157" x="-2" y="0" width="1448" height="710" filterUnits="userSpaceOnUse" color-interpolation-filters="sRGB">
<feFlood flood-opacity="0" result="BackgroundImageFix"/>
<feColorMatrix in="SourceAlpha" type="matrix" values="0 0 0 0 0 0 0 0 0 0 0 0 0 0 0 0 0 0 127 0" result="hardAlpha"/>
<feOffset dx="2" dy="2"/>
<feGaussianBlur stdDeviation="2"/>
<feColorMatrix type="matrix" values="0 0 0 0 0 0 0 0 0 0 0 0 0 0 0 0 0 0 0.05 0"/>
<feBlend mode="normal" in2="BackgroundImageFix" result="effect1_dropShadow_485_157"/>
<feBlend mode="normal" in="SourceGraphic" in2="effect1_dropShadow_485_157" result="shape"/>
</filter>
</defs>
</svg>
